module gitlab.com/christianmahardhika/golang-telebot

go 1.17

require (
	github.com/josharian/impl v1.1.0 // indirect
	golang.org/x/mod v0.5.1 // indirect
	golang.org/x/sys v0.0.0-20211117180635-dee7805ff2e1 // indirect
	golang.org/x/tools v0.1.7 // indirect
	golang.org/x/xerrors v0.0.0-20200804184101-5ec99f83aff1 // indirect
)
